src-verilog/simulation/qsim/av1_verilog.msim.vcd
$comment
	File created using the following command:
		vcd file av1_verilog.msim.vcd -direction
$end
$date
	Sat Apr 03 15:52:41 2021
$end
$version
	ModelSim Version 2020.1
$end
$timescale
	1ps
$end

$scope module final_vlg_vec_tst $end
$var reg 1 ! c $end
$var reg 1 " d $end
$var reg 1 # e $end
$var reg 1 $ f $end
$var reg 1 % g $end
$var reg 1 & h $end
$var wire 1 ' L0 $end
$var wire 1 ( L1 $end
$var wire 1 ) L2 $end
$var wire 1 * L3 $end
$var wire 1 + L4 $end
$var wire 1 , L5 $end
$var wire 1 - led0 $end
$var wire 1 . led1 $end
$var wire 1 / led2 $end
$var wire 1 0 led3 $end
$var wire 1 1 led4 $end
$var wire 1 2 led5 $end

$scope module i1 $end
$var wire 1 3 gnd $end
$var wire 1 4 vcc $end
$var wire 1 5 unknown $end
$var tri1 1 6 devclrn $end
$var tri1 1 7 devpor $end
$var tri1 1 8 devoe $end
$var wire 1 9 h~combout $end
$var wire 1 : g~combout $end
$var wire 1 ; e~combout $end
$var wire 1 < f~combout $end
$var wire 1 = c1|or1~0_combout $end
$var wire 1 > c1|or2~combout $end
$var wire 1 ? d~combout $end
$var wire 1 @ c1|and3~combout $end
$var wire 1 A c1|or3~0_combout $end
$var wire 1 B c1|or4~combout $end
$var wire 1 C c~combout $end
$var wire 1 D c2|or1~combout $end
$upscope $end
$upscope $end
$enddefinitions $end
#0
$dumpvars
0!
0"
0#
0$
0%
0&
x'
x(
x)
x*
0+
x,
x-
x.
0/
x0
x1
x2
03
14
x5
16
17
18
x9
x:
x;
x<
x=
x>
x?
x@
xA
xB
xC
xD
$end
#1132
09
0:
0;
0<
0?
0C
#5000
1&
#5898
1D
#6005
0A
#6093
1B
#6100
1>
#6103
0@
#6132
19
#6136
0=
#8467
1,
#8889
0)
0(
0'
#9943
1*
#10000
1%
0&
#10184
00
#10926
01
#11014
12
#11015
1.
#11039
0-
#11100
0>
#11132
09
1:
#15000
1&
#16015
0.
#16100
1>
#16132
19
#16136
1=
#20000
1$
0%
0&
#21015
1.
#21039
1-
#21100
0>
#21132
09
0:
1<
#25000
1&
#26015
0.
#26100
1>
#26132
19
#30000
1%
0&
#31015
1.
#31132
09
1:
#35000
1&
#36132
19
#40000
1#
0$
0%
0&
#41132
09
0:
0<
1;
#45000
1&
#46005
1A
#46103
1@
#46132
19
#46136
0=
#50000
1%
0&
#50184
10
#50926
11
#51039
0-
#51100
0>
#51101
1=
#51132
09
1:
#55000
1&
#56004
1-
#56015
0.
#56100
1>
#56132
19
#60000
1$
0%
0&
#61015
1.
#61100
0>
#61132
09
0:
1<
#65000
1&
#65938
0A
#66015
0.
#66100
1>
#66132
19
#70000
1%
0&
#70859
01
#71015
1.
#71100
0>
#71132
09
1:
#75000
1&
#76015
0.
#76100
1>
#76132
19
#80000
1"
0#
0$
0%
0&
#81015
1.
#81100
0>
#81132
09
0:
0<
0;
1?
#85000
1&
#86015
0.
#86100
1>
#86103
0@
#86132
19
#86136
0=
#88889
1)
1(
1'
#90000
1%
0&
#90184
00
#91015
1.
#91039
0-
#91100
0>
#91132
09
1:
#95000
1&
#96015
0.
#96100
1>
#96132
19
#96136
1=
#100000
1$
0%
0&
#101015
1.
#101039
1-
#101100
0>
#101132
09
0:
1<
#105000
1&
#105938
1A
#106015
0.
#106100
1>
#106132
19
#110000
1%
0&
#110859
11
#111015
1.
#111132
09
1:
#115000
1&
#116132
19
#120000
1#
0$
0%
0&
#121132
09
0:
0<
1;
#125000
1&
#126132
19
#126136
0=
#130000
1%
0&
#131039
0-
#131093
0B
#131100
0>
#131101
1=
#131132
09
1:
#135000
1&
#136004
1-
#136014
02
#136015
0.
#136093
1B
#136100
1>
#136132
19
#140000
1$
0%
0&
#141014
12
#141015
1.
#141093
0B
#141100
0>
#141132
09
0:
1<
#145000
1&
#146014
02
#146015
0.
#146093
1B
#146100
1>
#146132
19
#150000
1%
0&
#151014
12
#151015
1.
#151093
0B
#151100
0>
#151132
09
1:
#155000
1&
#156014
02
#156015
0.
#156093
1B
#156100
1>
#156132
19
#160000
1!
0"
0#
0$
0%
0&
#161014
12
#161015
1.
#161093
0B
#161100
0>
#161132
09
0:
0<
0;
0?
1C
#165000
1&
#165622
0D
#166005
0A
#166014
02
#166015
0.
#166093
1B
#166100
1>
#166132
19
#166136
0=
#168467
0,
#168889
0)
0(
0'
#169667
0*
#170000
1%
0&
#170926
01
#171014
12
#171015
1.
#171039
0-
#171100
0>
#171132
09
1:
#175000
1&
#176015
0.
#176100
1>
#176132
19
#176136
1=
#180000
1$
0%
0&
#181015
1.
#181039
1-
#181100
0>
#181132
09
0:
1<
#185000
1&
#186015
0.
#186100
1>
#186132
19
#190000
1%
0&
#191015
1.
#191132
09
1:
#195000
1&
#196132
19
#200000
1#
0$
0%
0&
#201132
09
0:
0<
1;
#205000
1&
#206005
1A
#206103
1@
#206132
19
#206136
0=
#210000
1%
0&
#210184
10
#210926
11
#211039
0-
#211100
0>
#211101
1=
#211132
09
1:
#215000
1&
#216004
1-
#216015
0.
#216100
1>
#216132
19
#220000
1$
0%
0&
#221015
1.
#221100
0>
#221132
09
0:
1<
#225000
1&
#225938
0A
#226015
0.
#226100
1>
#226132
19
#230000
1%
0&
#230859
01
#231015
1.
#231100
0>
#231132
09
1:
#235000
1&
#236015
0.
#236100
1>
#236132
19
#240000
1"
0#
0$
0%
0&
#241015
1.
#241100
0>
#241132
09
0:
0<
0;
1?
#245000
1&
#245622
1D
#246015
0.
#246100
1>
#246103
0@
#246132
19
#246136
0=
#248889
1)
1(
1'
#249667
1*
#250000
1%
0&
#250184
00
#251015
1.
#251039
0-
#251100
0>
#251132
09
1:
#255000
1&
#256015
0.
#256100
1>
#256132
19
#256136
1=
#260000
1$
0%
0&
#261015
1.
#261039
1-
#261100
0>
#261132
09
0:
1<
#265000
1&
#265938
1A
#266015
0.
#266100
1>
#266132
19
#270000
1%
0&
#270859
11
#271015
1.
#271132
09
1:
#275000
1&
#276132
19
#280000
1#
0$
0%
0&
#281132
09
0:
0<
1;
#285000
1&
#286132
19
#286136
0=
#290000
1%
0&
#291039
0-
#291093
0B
#291100
0>
#291101
1=
#291132
09
1:
#295000
1&
#296004
1-
#296014
02
#296015
0.
#296093
1B
#296100
1>
#296132
19
#300000
1$
0%
0&
#301014
12
#301015
1.
#301093
0B
#301100
0>
#301132
09
0:
1<
#305000
1&
#306014
02
#306015
0.
#306093
1B
#306100
1>
#306132
19
#310000
1%
0&
#311014
12
#311015
1.
#311093
0B
#311100
0>
#311132
09
1:
#315000
1&
#316014
02
#316015
0.
#316093
1B
#316100
1>
#316132
19
#319000
0!
0"
0#
0$
0%
0&
#320132
09
0:
0<
0;
0?
0C
#321014
12
#321015
1.
#325005
0A
#325136
0=
#327467
1,
#327889
0)
0(
0'
#329926
01
#330039
0-
