simulation/qsim/av1_esquematico.msim.vcd
$comment
	File created using the following command:
		vcd file av1_esquematico.msim.vcd -direction
$end
$date
	Sat Apr 03 16:18:45 2021
$end
$version
	ModelSim Version 2020.1
$end
$timescale
	1ps
$end

$scope module av1_esquematico_vlg_vec_tst $end
$var reg 1 ! c $end
$var reg 1 " d $end
$var reg 1 # e $end
$var reg 1 $ f $end
$var reg 1 % g $end
$var reg 1 & h $end
$var wire 1 ' L0 $end
$var wire 1 ( L1 $end
$var wire 1 ) L2 $end
$var wire 1 * L3 $end
$var wire 1 + L4 $end
$var wire 1 , L5 $end
$var wire 1 - led0 $end
$var wire 1 . led1 $end
$var wire 1 / led2 $end
$var wire 1 0 led3 $end
$var wire 1 1 led4 $end
$var wire 1 2 led5 $end

$scope module i1 $end
$var wire 1 3 gnd $end
$var wire 1 4 vcc $end
$var wire 1 5 unknown $end
$var tri1 1 6 devclrn $end
$var tri1 1 7 devpor $end
$var tri1 1 8 devoe $end
$var wire 1 9 d~combout $end
$var wire 1 : c~combout $end
$var wire 1 ; not_c_or_d~combout $end
$var wire 1 < h~combout $end
$var wire 1 = g~combout $end
$var wire 1 > e~combout $end
$var wire 1 ? f~combout $end
$var wire 1 @ g_or_f_or_g_and_h~0_combout $end
$var wire 1 A not_h_or_not_e_and_f~combout $end
$var wire 1 B not_d_and_e~combout $end
$var wire 1 C e_and_not_f_OR_d_and_f~0_combout $end
$var wire 1 D not_d_or_not_e_or_not_h~combout $end
$upscope $end
$upscope $end
$enddefinitions $end
#0
$dumpvars
0!
0"
0#
0$
0%
0&
0'
0(
0)
1*
0+
1,
0-
1.
0/
00
01
12
03
14
x5
16
17
18
09
0:
1;
0<
0=
0>
0?
0@
1A
0B
0C
1D
$end
#5000
1&
1<
0A
0.
#10000
1%
0&
1=
0<
1@
1A
1-
1.
#15000
1&
1<
0A
0.
#20000
1$
0%
0&
1?
0=
0<
1A
1.
#25000
1&
1<
#30000
1%
0&
1=
0<
#35000
1&
1<
#40000
1#
0$
0%
0&
1>
0?
0=
0<
1C
1B
0@
11
10
0-
#45000
1&
1<
0A
1@
0.
1-
#50000
1%
0&
1=
0<
1A
1.
#55000
1&
1<
0A
0.
#60000
1$
0%
0&
1?
0=
0<
0C
1A
01
1.
#65000
1&
1<
0A
0.
#70000
1%
0&
1=
0<
1A
1.
#75000
1&
1<
0A
0.
#80000
1"
0#
0$
0%
0&
19
0>
0?
0=
0<
0B
1A
0@
1'
1)
1(
00
1.
0-
#85000
1&
1<
0A
0.
#90000
1%
0&
1=
0<
1@
1A
1-
1.
#95000
1&
1<
0A
0.
#100000
1$
0%
0&
1?
0=
0<
1C
1A
11
1.
#105000
1&
1<
#110000
1%
0&
1=
0<
#115000
1&
1<
#120000
1#
0$
0%
0&
1>
0?
0=
0<
0@
0-
#125000
1&
1<
0D
0A
1@
02
0.
1-
#130000
1%
0&
1=
0<
1D
1A
12
1.
#135000
1&
1<
0D
0A
02
0.
#140000
1$
0%
0&
1?
0=
0<
1A
1D
1.
12
#145000
1&
1<
0D
0A
02
0.
#150000
1%
0&
1=
0<
1D
1A
12
1.
#155000
1&
1<
0D
0A
02
0.
#160000
1!
0"
0#
0$
0%
0&
1:
09
0>
0?
0=
0<
0;
1D
0C
1A
0@
0'
0)
0(
0,
0*
12
01
1.
0-
#165000
1&
1<
0A
0.
#170000
1%
0&
1=
0<
1@
1A
1-
1.
#175000
1&
1<
0A
0.
#180000
1$
0%
0&
1?
0=
0<
1A
1.
#185000
1&
1<
#190000
1%
0&
1=
0<
#195000
1&
1<
#200000
1#
0$
0%
0&
1>
0?
0=
0<
1C
1B
0@
11
10
0-
#205000
1&
1<
0A
1@
0.
1-
#210000
1%
0&
1=
0<
1A
1.
#215000
1&
1<
0A
0.
#220000
1$
0%
0&
1?
0=
0<
0C
1A
01
1.
#225000
1&
1<
0A
0.
#230000
1%
0&
1=
0<
1A
1.
#235000
1&
1<
0A
0.
#240000
1"
0#
0$
0%
0&
19
0>
0?
0=
0<
0B
1;
1A
0@
1'
1)
1(
00
1*
1.
0-
#245000
1&
1<
0A
0.
#250000
1%
0&
1=
0<
1@
1A
1-
1.
#255000
1&
1<
0A
0.
#260000
1$
0%
0&
1?
0=
0<
1C
1A
11
1.
#265000
1&
1<
#270000
1%
0&
1=
0<
#275000
1&
1<
#280000
1#
0$
0%
0&
1>
0?
0=
0<
0@
0-
#285000
1&
1<
0D
0A
1@
02
0.
1-
#290000
1%
0&
1=
0<
1D
1A
12
1.
#295000
1&
1<
0D
0A
02
0.
#300000
1$
0%
0&
1?
0=
0<
1A
1D
1.
12
#305000
1&
1<
0D
0A
02
0.
#310000
1%
0&
1=
0<
1D
1A
12
1.
#315000
1&
1<
0D
0A
02
0.
